aiohttp==3.8.1
aiosignal==1.2.0
aiosqlite==0.17.0
argcomplete==1.12.3
async-timeout==4.0.2
attrs==21.4.0
black==22.3.0
certifi==2022.5.18.1
charset-normalizer==2.0.12
click==8.1.3
codespell==2.1.0
colorlog==6.6.0
coverage==6.4.1
distlib==0.3.4
dparse==0.5.1
filament==0.0.2
filelock==3.7.1
frozenlist==1.3.0
hikari==2.0.0.dev126
hikari-lightbulb==2.3.5
hikari-miru==4.1.1
idna==3.3
importlib-metadata==4.11.4
iniconfig==1.1.1
isort==5.10.1
jsonschema==4.6.0
lightbulb-ext-filament==0.1.2.post0
Mako==1.2.0
Markdown==3.3.7
MarkupSafe==2.1.1
miru==0.2.0
mock==4.0.3
multidict==6.0.2
mypy==0.961
mypy-extensions==0.4.3
nodeenv==1.6.0
nox==2022.1.7
nusex==1.2.4
packaging==21.3
pathspec==0.9.0
pdoc3==0.10.0
platformdirs==2.5.2
pluggy==1.0.0
psutil==5.9.1
py==1.11.0
pyparsing==3.0.9
pyright==1.1.253
pyrsistent==0.18.1
pytest==6.2.5
pytest-asyncio==0.18.3
pytest-cov==3.0.0
pytest-randomly==3.12.0
python-dotenv==0.20.0
PyYAML==6.0
requests==2.28.0
safety==1.10.3
six==1.16.0
slotscheck==0.14.0
sphobjinv==2.2.2
SQLAlchemy==1.4.37
toml==0.10.2
tomli==2.0.1
typing_extensions==4.2.0
urllib3==1.26.9
urwid==2.1.2
uvloop==0.16.0
virtualenv==20.14.1
yarl==1.7.2
zipp==3.8.0
